RANK,YEAR,Q,Company Name,TTB No.,Tax ID,Total Volume Removed (number),Total Taxes Paid ($),Revised Share of Total Taxes,Previous Share of Total Taxes,Delta (Revised - Previous),Company Street Address,City,State,Zip Code,Phone Number,Class,Type,Email Address,Address Changed,Contact Changed
1,2051,Q2,"AUTOMATION  IMPORTER CIGAR ASSESSMENT", ,"=""563487438""","=""1,000""","=""$1,000.00""","=""0.5""","=""0.5""","=""0""","62552I15;7EK68K1F8GH849C7B61;250","ORLANDO","FL","52450","(564) 743-7432",Cigars,C,NEWEMAIL2@GMAIL.COM,N,N
2,2051,Q2,"AUTOMATION MANUFACTURER  CIGAR ASSESSMENT", ,"=""564378238""","=""1,000""","=""$1,000.00""","=""0.5""","=""0.5""","=""0""","MSA;North flaggers street;654","Mobile","AL","45637","(345) 432-6782",Cigars,C,camren@gmail.com,N,N
