Tobacco Class,FDA 3852 Removals, CBP 7501 Removals,Difference Removals,Activity,FDA 3852 Tax,CBP 7501 Tax,Difference Tax,Activity
Snuff,"2,500.000","4,409.245","-1,909.245",Error,"$3,775.00","$6,657.89","-$2,882.89",Error

Tobacco Class,Line #,Type,Net Quantity,Excise Tax,Calc Tax Rate,Tax Diff
Snuff,1,,"2,000.000","$6,657.89",1.509984,"$0.00"
