Tobacco Class,FDA 3852 Removals, CBP 7501 Removals,Difference Removals,Activity,FDA 3852 Tax,CBP 7501 Tax,Difference Tax,Activity
Pipe,"2,500.000","4,409.245","-1,909.245",Error,"$7,077.75","$12,482.88","-$5,405.13",Error

Tobacco Class,Line #,Type,Net Quantity,Excise Tax,Calc Tax Rate,Tax Diff
Pipe,1,,"2,000.000","$12,482.88",2.83107,"$0.00"
