Tobacco Class,FDA 3852 Removals, CBP 7501 Removals,Difference Removals,Activity,FDA 3852 Tax,CBP 7501 Tax,Difference Tax,Activity
Cigars,"2,500","8,000,000","-7,997,500",Error,"$1,000.00","$1,711,060.00","-$1,710,060.00",Error

Tobacco Class,Line #,Type,Net Quantity,Excise Tax,Calc Tax Rate,Tax Diff
Cigars,1,None,"2,000.000","$0.00",0,""
Cigars,2,Small,"2,000.000","$100,660.00",50.33,"$0.00"
Cigars,3,Large,"2,000.000","$805,200.00",402.6,"$0.00"
Cigars,4,Ad Valorem,"2,000.000","$805,200.00",N/A,"$0.00"
