Tobacco Class,Removals Amount,Tax Rate,Excise Tax,Difference Tax,Calculated Tax Rate,Activity
Cigarettes,"1,000",0.05033,"$50.33","$0.00",50.33,Valid
Cigars,"1,000",,"$1,000.00","",N/A,
Snuff,"5,000.000",1.51,"$7,550.00","$0.00",1.51,Valid
Chew,"4,000.000",0.5033,"$2,013.20","$0.00",.5033,Valid
Pipe,"1,000.000",2.8311,"$2,831.10","$0.00",2.8311,Valid
Roll-Your-Own,"2,000.000",24.78,"$49,560.00","$0.00",24.78,Valid
