[
 {
   "Period": "Quarter 1",
   "FDA3852": 1350000,
   "Ingested": 1900000
 },
 {
   "Period": "Quarter 2",
   "FDA3852": 1452.23,
   "Ingested": 14578.02
 },
 {
   "Period": "Quarter 3",
   "FDA3852": 1000.45,
   "Ingested": 25468.44
 },
 {
   "Period": "Quarter 4",
   "FDA3852": 47888.25,
   "Ingested": 1455
 },
 {
   "Period": "Total",
   "FDA3852": 1400340.93,
   "Ingested": 1941501.46
 }
]